[gd_scene load_steps=3 format=3 uid="uid://dlwjaia0bwh3k"]

[ext_resource type="PackedScene" uid="uid://b6o3foa0kbjt1" path="res://addons/graph_editor/context.tscn" id="1_08mhe"]
[ext_resource type="Script" path="res://addons/graph_editor/level.gd" id="1_j804r"]

[node name="Level" type="CenterContainer"]
clip_contents = true
anchors_preset = 15
anchor_right = 1.0
anchor_bottom = 1.0
grow_horizontal = 2
grow_vertical = 2
focus_mode = 2
script = ExtResource("1_j804r")

[node name="Context" parent="." instance=ExtResource("1_08mhe")]
layout_mode = 2
